[
    {
        "_id": "b-05",
        "_parentId": "a-50",
        "_type": "block",
        "_classes": "",
        "title": "b-05",
        "displayTitle": "",
        "body": "",
        "_trackingId": 1
    },
    {
        "_id": "b-10",
        "_parentId": "a-50",
        "_type": "block",
        "_classes": "",
        "title": "b-10",
        "displayTitle": "",
        "body": "",
        "_trackingId": 2
    },
    {
        "_id": "b-90",
        "_parentId": "a-50",
        "_type": "block",
        "_classes": "",
        "title": "b-90",
        "displayTitle": "",
        "body": "",
        "_trackingId": 3
    },
    {
        "_id": "b-100",
        "_parentId": "a-100",
        "_type": "block",
        "_classes": "",
        "title": "b-100",
        "displayTitle": "",
        "body": "",
        "_trackingId": 4
    },
    {
        "_id": "b-190",
        "_parentId": "a-100",
        "_type": "block",
        "_classes": "",
        "title": "b-190",
        "displayTitle": "",
        "body": "",
        "_trackingId": 5
    },
    {
        "_id": "b-200",
        "_parentId": "a-150",
        "_type": "block",
        "_classes": "",
        "title": "b-200",
        "displayTitle": "",
        "body": "",
        "_trackingId": 6
    },
    {
        "_id": "b-290",
        "_parentId": "a-150",
        "_type": "block",
        "_classes": "",
        "title": "b-290",
        "displayTitle": "",
        "body": "",
        "_trackingId": 7
    },
    {
        "_id": "b-300",
        "_parentId": "a-200",
        "_type": "block",
        "_classes": "",
        "title": "b-300",
        "displayTitle": "",
        "body": "",
        "_trackingId": 8
    },
    {
        "_id": "b-310",
        "_parentId": "a-200",
        "_type": "block",
        "_classes": "",
        "title": "b-300",
        "displayTitle": "",
        "body": "",
        "_trackingId": 9
    },
    {
        "_id": "b-320",
        "_parentId": "a-200",
        "_type": "block",
        "_classes": "",
        "title": "b-320",
        "displayTitle": "",
        "body": "",
        "_trackingId": 10
    },
    {
        "_id": "b-390",
        "_parentId": "a-200",
        "_type": "block",
        "_classes": "",
        "title": "b-390",
        "displayTitle": "",
        "body": "",
        "_trackingId": 11
    },
    {
        "_id": "b-400",
        "_parentId": "a-250",
        "_type": "block",
        "_classes": "",
        "title": "b-400",
        "displayTitle": "",
        "body": "",
        "_trackingId": 12
    },
    {
        "_id": "b-410",
        "_parentId": "a-250",
        "_type": "block",
        "_classes": "",
        "title": "b-410",
        "displayTitle": "",
        "body": "",
        "_trackingId": 13
    },
    {
        "_id": "b-490",
        "_parentId": "a-250",
        "_type": "block",
        "_classes": "",
        "title": "b-490",
        "displayTitle": "",
        "body": "",
        "_trackingId": 14
    },
    {
        "_id": "b-500",
        "_parentId": "a-300",
        "_type": "block",
        "_classes": "",
        "title": "b-500",
        "displayTitle": "",
        "body": "",
        "_trackingId": 15
    },
    {
        "_id": "b-590",
        "_parentId": "a-300",
        "_type": "block",
        "_classes": "",
        "title": "b-590",
        "displayTitle": "",
        "body": "",
        "_trackingId": 16
    },
    {
        "_id": "b-600",
        "_parentId": "a-350",
        "_type": "block",
        "_classes": "",
        "title": "b-600",
        "displayTitle": "",
        "body": "",
        "_trackingId": 17
    },
    {
        "_id": "b-690",
        "_parentId": "a-350",
        "_type": "block",
        "_classes": "",
        "title": "b-690",
        "displayTitle": "",
        "body": "",
        "_trackingId": 18
    },
    {
        "_id": "b-700",
        "_parentId": "a-400",
        "_type": "block",
        "_classes": "",
        "title": "b-700",
        "displayTitle": "",
        "body": "",
        "_trackingId": 19
    },
    {
        "_id": "b-790",
        "_parentId": "a-400",
        "_type": "block",
        "_classes": "",
        "title": "b-790",
        "displayTitle": "",
        "body": "",
        "_trackingId": 20
    },
    {
        "_id": "b-800",
        "_parentId": "a-450",
        "_type": "block",
        "_classes": "",
        "title": "b-800",
        "displayTitle": "",
        "body": "",
        "_trackingId": 21
    },
    {
        "_id": "b-810",
        "_parentId": "a-450",
        "_type": "block",
        "_classes": "",
        "title": "b-810",
        "displayTitle": "",
        "body": "",
        "_trackingId": 22
    },
    {
        "_id": "b-820",
        "_parentId": "a-450",
        "_type": "block",
        "_classes": "",
        "title": "b-820",
        "displayTitle": "",
        "body": "",
        "_trackingId": 23
    },
    {
        "_id": "b-890",
        "_parentId": "a-450",
        "_type": "block",
        "_classes": "",
        "title": "b-890",
        "displayTitle": "",
        "body": "",
        "_trackingId": 24
    },
    {
        "_id": "b-900",
        "_parentId": "a-500",
        "_type": "block",
        "_classes": "",
        "title": "b-900",
        "displayTitle": "",
        "body": "",
        "_trackingId": 25
    },
    {
        "_id": "b-990",
        "_parentId": "a-500",
        "_type": "block",
        "_classes": "",
        "title": "b-990",
        "displayTitle": "",
        "body": "",
        "_trackingId": 26
    },
    {
        "_id": "b-1000",
        "_parentId": "a-550",
        "_type": "block",
        "_classes": "",
        "title": "b-1000",
        "displayTitle": "",
        "body": "",
        "_trackingId": 27
    },
    {
        "_id": "b-1090",
        "_parentId": "a-550",
        "_type": "block",
        "_classes": "",
        "title": "b-1090",
        "displayTitle": "",
        "body": "",
        "_trackingId": 28
    },
    {
        "_id": "b-1200",
        "_parentId": "a-600",
        "_type": "block",
        "_classes": "",
        "title": "b-1200",
        "displayTitle": "",
        "body": "",
        "_trackingId": 29
    },
    {
        "_id": "b-1210",
        "_parentId": "a-600",
        "_type": "block",
        "_classes": "",
        "title": "b-1210",
        "displayTitle": "",
        "body": "",
        "_trackingId": 30
    },
    {
        "_id": "b-1220",
        "_parentId": "a-600",
        "_type": "block",
        "_classes": "",
        "title": "b-1220",
        "displayTitle": "",
        "body": "",
        "_trackingId": 31
    },
    {
        "_id": "b-1230",
        "_parentId": "a-600",
        "_type": "block",
        "_classes": "",
        "title": "b-1230",
        "displayTitle": "",
        "body": "",
        "_trackingId": 32
    }
]